{
  "development": {
    "username": "root",
    "password": null,
    "database": "mwstore",
    "host": "127.0.0.1",
    "dialect": "mysql"
  },
  "test": {
    "username": "root",
    "password": null,
    "database": "database_test",
    "host": "127.0.0.1",
    "dialect": "mysql"
  },
  "production": {
    "username": "",
    "password": "",
    "database": "",
    "host": "",
    "dialect": "mysql"
  }
}
